Content-Type: text/x-zim-wiki
Wiki-Format: zim 0.4
Creation-Date: 2019-08-30T15:19:26-05:00

====== ZeroNet ======
Created viernes 30 agosto 2019

Redes Sociales

[[+ZeroMe]]

Discusión

[[+ZeroTalk]]

Ver videos

[[+Kopy_Kate]]
